\contentsline {chapter}{\numberline {第1章}はじめに}{1}{chapter.1}
\contentsline {chapter}{\numberline {第2章}関連研究}{5}{chapter.2}
\contentsline {chapter}{\numberline {第3章}提案手法}{7}{chapter.3}
\contentsline {section}{\numberline {3.1}わだち掘れ検出手法}{7}{section.3.1}
\contentsline {chapter}{\numberline {第4章}設計と実装}{11}{chapter.4}
\contentsline {section}{\numberline {4.1}設計}{11}{section.4.1}
\contentsline {section}{\numberline {4.2}実装とアルゴリズム}{11}{section.4.2}
\contentsline {chapter}{\numberline {第5章}評価}{13}{chapter.5}
\contentsline {section}{\numberline {5.1}評価環境}{13}{section.5.1}
\contentsline {section}{\numberline {5.2}結果と考察}{13}{section.5.2}
\contentsline {chapter}{\numberline {第6章}結論}{19}{chapter.6}
\contentsline {chapter}{謝辞}{21}{chapter*.6}
\contentsline {chapter}{参考文献}{23}{chapter*.7}
